<?xml version="1.0" standalone="no"?>
<!DOCTYPE svg PUBLIC "-//W3C//DTD SVG 20010904//EN"
 "http://www.w3.org/TR/2001/REC-SVG-20010904/DTD/svg10.dtd">
<svg version="1.0" xmlns="http://www.w3.org/2000/svg"
 width="960.000000pt" height="960.000000pt" viewBox="0 0 960.000000 960.000000"
 preserveAspectRatio="xMidYMid meet">
<metadata>
Created by potrace 1.11, written by Peter Selinger 2001-2013
</metadata>
<g transform="translate(0.000000,960.000000) scale(0.100000,-0.100000)"
fill="#000000" stroke="none">
<path d="M8995 9588 c-16 -5 -39 -11 -50 -14 -30 -8 -38 -10 -55 -17 -14 -6
-92 -28 -115 -32 -5 -2 -44 -13 -85 -26 -41 -12 -84 -24 -95 -26 -11 -2 -36
-9 -55 -15 -19 -7 -37 -13 -40 -13 -3 -1 -25 -7 -50 -14 -25 -7 -53 -15 -62
-16 -9 -2 -25 -8 -35 -13 -10 -6 -31 -12 -48 -15 -16 -3 -43 -10 -58 -16 -15
-6 -31 -10 -35 -9 -4 1 -14 -2 -22 -5 -22 -10 -181 -57 -209 -63 -14 -3 -28
-7 -33 -10 -4 -3 -16 -7 -25 -9 -10 -1 -89 -24 -176 -50 -171 -50 -209 -72
-222 -128 -11 -44 -12 -387 -2 -387 5 0 5 -5 1 -11 -6 -10 -9 -119 -4 -144 1
-5 1 -14 0 -20 -2 -10 -2 -45 1 -222 1 -57 -1 -103 -4 -103 -4 0 -11 0 -15 0
-5 0 -17 8 -28 18 -55 50 -335 242 -353 242 -6 0 -11 5 -11 10 0 6 -7 10 -15
10 -8 0 -15 5 -15 10 0 6 -7 10 -15 10 -8 0 -15 4 -15 9 0 5 -8 11 -17 14 -10
3 -58 29 -108 56 -87 49 -292 152 -365 183 -129 56 -166 71 -255 103 -55 19
-107 38 -115 42 -8 3 -19 7 -25 8 -5 2 -64 19 -129 39 -66 20 -129 38 -140 41
-12 2 -21 4 -21 5 0 1 -9 3 -19 5 -48 9 -164 37 -194 46 -19 6 -36 8 -39 6 -3
-3 -15 -2 -28 3 -20 8 -59 15 -130 25 -11 1 -40 5 -65 9 -25 4 -62 9 -82 11
-21 3 -55 7 -76 10 -133 18 -548 24 -757 11 -66 -4 -126 -8 -132 -9 -7 0 -13
-3 -13 -6 0 -3 -26 -6 -58 -7 -31 0 -78 -4 -104 -7 -80 -12 -122 -18 -148 -23
-14 -2 -38 -7 -55 -9 -16 -3 -41 -7 -55 -10 -31 -7 -63 -14 -95 -19 -13 -3
-28 -7 -32 -9 -5 -3 -24 -8 -43 -11 -19 -3 -69 -15 -110 -26 -41 -12 -83 -23
-93 -25 -10 -2 -57 -16 -105 -32 -48 -15 -90 -28 -94 -29 -5 -1 -10 -3 -13 -4
-3 -1 -8 -3 -12 -4 -5 -1 -12 -4 -18 -7 -5 -4 -28 -12 -50 -19 -22 -6 -55 -19
-74 -27 -18 -8 -39 -16 -45 -17 -6 -1 -33 -12 -60 -24 -27 -12 -50 -22 -53
-22 -4 0 -102 -46 -243 -113 -81 -39 -331 -180 -387 -218 -23 -16 -46 -29 -52
-29 -6 0 -11 -5 -11 -10 0 -6 -8 -14 -17 -17 -16 -6 -71 -41 -83 -53 -3 -3
-27 -21 -55 -40 -27 -19 -54 -38 -60 -42 -66 -52 -235 -188 -254 -203 -139
-118 -437 -421 -490 -499 -9 -11 -20 -25 -27 -31 -9 -8 -88 -107 -147 -186
-53 -69 -192 -276 -232 -344 -16 -27 -34 -58 -40 -67 -58 -95 -214 -406 -208
-412 4 -3 1 -6 -5 -6 -7 0 -12 -8 -12 -18 0 -10 -3 -22 -6 -25 -25 -24 -195
-498 -210 -582 -1 -5 -3 -13 -4 -17 -1 -5 -4 -12 -5 -18 -1 -5 -3 -11 -5 -12
-1 -2 -3 -10 -5 -18 -2 -8 -8 -35 -14 -60 -14 -54 -19 -77 -26 -110 -23 -112
-22 -109 -25 -112 -1 -2 -3 -12 -4 -23 -4 -26 -16 -101 -23 -145 -7 -40 -7
-45 -17 -120 -13 -105 -15 -125 -23 -215 -15 -175 -7 -714 11 -732 3 -3 1 -14
-5 -24 -5 -11 -6 -19 -1 -19 4 0 9 -18 10 -39 2 -21 5 -54 8 -72 3 -19 7 -48
9 -64 3 -26 14 -91 40 -230 10 -58 27 -130 32 -145 3 -8 7 -19 7 -25 4 -27 31
-135 39 -155 6 -14 29 -102 29 -107 0 -1 11 -33 25 -70 13 -37 26 -75 28 -84
4 -19 88 -234 112 -288 109 -244 227 -460 356 -656 73 -111 168 -245 192 -271
5 -6 17 -22 25 -34 8 -12 22 -30 30 -40 8 -9 35 -41 60 -70 25 -30 65 -76 89
-104 63 -72 393 -396 403 -396 4 0 20 -13 35 -28 47 -47 327 -262 342 -262 4
0 16 -9 26 -20 10 -11 24 -20 32 -20 7 0 13 -4 13 -8 0 -5 11 -14 24 -20 14
-6 34 -19 46 -29 11 -10 24 -18 28 -18 4 0 21 -10 39 -23 17 -12 35 -22 39
-22 4 0 15 -6 23 -14 18 -15 98 -60 206 -115 39 -20 72 -39 73 -43 2 -5 10 -8
18 -8 7 0 37 -13 66 -29 29 -15 58 -29 63 -31 13 -4 69 -27 120 -50 22 -9 69
-29 105 -42 36 -14 74 -29 85 -33 11 -5 22 -9 25 -10 3 0 61 -19 130 -41 122
-40 270 -83 300 -87 8 -2 21 -6 28 -10 6 -5 12 -6 12 -4 0 3 17 1 38 -4 20 -5
48 -12 62 -15 14 -3 32 -7 41 -10 9 -2 32 -7 50 -9 19 -3 45 -7 59 -10 44 -10
64 -14 105 -19 55 -7 125 -17 155 -22 24 -4 75 -9 215 -19 182 -14 335 -15
335 -3 0 10 2 10 9 -1 7 -11 38 -12 157 -7 82 4 165 8 184 11 19 2 65 7 102 9
37 3 77 8 90 11 13 3 39 7 58 9 70 9 149 22 160 26 3 1 8 2 12 2 9 -2 144 27
213 45 33 8 68 17 78 19 10 2 27 6 37 9 10 3 29 8 42 11 38 8 53 12 56 14 1 2
5 3 10 5 4 1 14 5 22 8 8 4 26 8 40 11 14 2 50 13 82 24 31 11 59 18 62 15 3
-4 6 -2 6 4 0 6 12 14 28 18 41 10 229 83 302 118 36 17 70 31 75 33 6 1 49
21 96 45 47 24 113 57 145 74 32 16 61 32 64 35 3 3 19 12 35 20 17 8 32 17
35 20 3 3 25 16 50 29 25 14 47 28 50 32 3 3 21 15 40 26 50 26 124 77 128 86
2 4 8 7 13 7 8 0 57 35 173 123 16 12 46 35 68 50 l38 29 0 -255 c0 -202 3
-262 15 -290 15 -36 59 -75 92 -82 10 -2 52 -13 93 -25 41 -12 100 -28 130
-36 30 -8 62 -18 70 -21 8 -3 24 -8 35 -10 28 -6 38 -9 55 -16 28 -11 115 -37
140 -41 14 -3 26 -5 28 -7 1 -1 5 -2 10 -4 4 -1 14 -5 22 -8 8 -3 41 -13 73
-22 31 -8 83 -22 115 -31 31 -9 62 -17 67 -18 6 -1 15 -4 20 -8 6 -3 37 -14
70 -23 110 -30 141 -39 330 -94 179 -52 203 -53 257 -2 l42 38 0 87 c1 47 5
86 9 86 5 0 5 5 1 11 -9 15 -11 229 -2 229 4 0 5 7 2 15 -10 25 -11 109 -2
128 5 9 5 17 1 17 -4 0 -7 19 -5 42 3 47 3 67 -1 173 -2 39 1 78 6 88 4 9 4
17 0 17 -4 0 -8 36 -8 80 0 44 3 80 7 80 4 0 5 7 2 15 -10 25 -11 109 -2 128
5 9 5 17 1 17 -4 0 -7 19 -5 42 3 47 3 67 -1 173 -2 39 1 78 6 88 4 9 4 17 0
17 -4 0 -8 52 -8 115 0 63 4 115 8 115 5 0 5 5 1 11 -9 15 -9 212 0 227 4 7 4
12 -1 12 -4 0 -7 37 -6 82 3 155 3 173 3 213 -1 22 -1 63 -1 90 0 28 -1 112
-2 188 -1 75 2 137 6 137 5 0 5 5 1 11 -9 15 -9 212 0 227 4 7 4 12 -1 12 -4
0 -7 37 -6 82 3 155 3 173 3 213 -1 22 -1 63 -1 90 0 28 -1 112 -2 188 -1 75
2 137 6 137 5 0 5 5 1 11 -9 15 -9 212 0 227 4 7 2 12 -4 12 -7 0 -8 6 0 19 7
14 7 22 0 26 -6 4 -8 10 -6 14 18 28 20 516 10 1931 -3 475 -3 572 -3 670 0
14 -1 61 -2 106 -1 44 1 85 4 91 4 7 3 14 -3 18 -7 4 -7 12 0 24 5 10 7 21 3
24 -3 4 -8 303 -10 664 -8 1625 -8 1605 -28 1646 -15 33 -42 57 -67 63 -5 1
-9 3 -10 4 -8 7 -67 6 -93 -2z m-4231 -2109 c4 6 51 7 51 1 0 -1 32 -4 70 -5
83 -4 169 -13 289 -30 78 -12 231 -45 321 -71 50 -14 95 -27 100 -29 18 -4 49
-16 67 -26 10 -5 25 -9 33 -9 8 0 34 -9 58 -19 23 -11 71 -32 106 -46 62 -26
227 -109 305 -154 45 -26 238 -152 246 -161 3 -3 50 -41 105 -84 100 -80 324
-298 380 -370 17 -21 35 -44 41 -50 6 -6 38 -50 72 -96 34 -47 65 -89 69 -95
44 -54 164 -275 228 -420 34 -74 106 -275 99 -275 -3 0 0 -9 6 -21 6 -11 13
-28 16 -37 2 -9 10 -44 19 -77 8 -33 17 -71 20 -85 8 -39 14 -73 20 -100 2
-14 7 -41 10 -60 3 -19 8 -46 10 -60 21 -125 28 -635 11 -735 -5 -27 -10 -59
-12 -70 -1 -11 -3 -20 -4 -20 -1 0 -3 -16 -5 -35 -2 -19 -6 -46 -9 -60 -3 -14
-11 -50 -17 -80 -6 -30 -15 -62 -20 -71 -4 -9 -10 -27 -13 -40 -10 -49 -15
-66 -39 -134 -45 -128 -62 -170 -69 -173 -5 -2 -8 -12 -8 -21 0 -10 -3 -21 -7
-25 -5 -4 -8 -11 -8 -14 -1 -10 -116 -236 -124 -242 -3 -3 -17 -25 -30 -50
-13 -25 -39 -66 -57 -93 -19 -26 -34 -49 -34 -52 0 -3 -6 -13 -12 -21 -27 -32
-34 -41 -78 -99 -67 -90 -135 -168 -245 -279 -77 -77 -198 -185 -224 -200 -9
-5 -23 -17 -31 -25 -8 -9 -29 -25 -45 -37 -17 -11 -60 -41 -96 -67 -61 -43
-121 -80 -209 -130 -65 -37 -209 -107 -219 -107 -6 0 -11 -4 -11 -10 0 -5 -3
-9 -7 -8 -5 2 -55 -16 -113 -39 -89 -35 -185 -69 -225 -80 -106 -27 -216 -55
-240 -59 -16 -2 -37 -7 -45 -9 -20 -6 -81 -15 -215 -31 -84 -11 -542 -11 -605
0 -25 4 -63 9 -85 11 -22 1 -47 5 -55 8 -21 7 -162 31 -182 31 -9 0 -14 4 -12
8 3 4 -8 8 -24 8 -16 0 -32 3 -36 7 -3 4 -16 8 -27 10 -30 5 -272 84 -284 93
-5 4 -27 13 -48 20 -21 6 -71 29 -112 50 -40 21 -76 36 -78 34 -2 -3 -10 2
-17 11 -7 8 -17 15 -22 15 -26 0 -285 167 -418 270 -106 81 -301 270 -392 380
-35 41 -68 81 -75 88 -7 7 -20 26 -30 42 -9 17 -21 30 -25 30 -4 0 -8 4 -8 10
0 5 -18 33 -40 62 -22 29 -47 67 -55 85 -9 18 -21 38 -28 45 -7 7 -23 36 -37
63 -14 28 -28 52 -31 55 -9 8 -86 174 -120 257 -17 43 -38 92 -45 110 -8 17
-17 46 -20 65 -4 18 -10 38 -14 43 -7 10 -22 69 -21 80 1 3 -5 21 -13 40 -13
30 -23 71 -30 125 -2 8 -5 24 -9 35 -4 11 -9 38 -12 60 -3 22 -7 49 -9 60 -2
11 -7 47 -11 80 -3 33 -9 71 -12 85 -2 14 -4 30 -4 35 0 6 0 24 0 40 -4 296 0
438 16 545 2 14 7 45 11 70 3 25 8 56 9 70 2 14 4 25 5 25 1 0 3 9 5 20 7 33
33 147 45 195 7 25 13 50 14 55 2 6 6 17 9 25 6 13 43 120 51 145 3 10 9 26
39 97 8 20 13 39 9 42 -3 3 0 6 6 6 7 0 12 4 12 9 0 11 71 164 79 171 3 3 16
25 28 50 13 25 29 54 35 65 100 156 162 245 169 245 5 0 9 6 9 13 0 7 12 26
28 43 15 17 43 50 62 74 19 24 65 75 103 114 37 39 67 74 67 78 0 5 4 8 9 8 4
0 34 25 66 56 32 31 75 68 94 82 20 15 45 35 56 46 11 10 31 25 45 34 14 9 29
22 33 29 4 7 15 13 22 13 8 0 15 4 15 8 0 5 16 17 35 28 19 10 35 22 35 26 0
5 6 8 13 8 8 0 27 11 43 25 16 14 35 25 42 25 6 0 12 5 12 12 0 6 3 8 7 5 3
-4 13 -1 22 6 28 23 111 68 111 60 0 -4 4 -3 8 3 8 14 193 102 228 109 6 2 27
10 47 20 19 9 41 18 49 19 7 2 24 8 38 13 25 11 157 51 189 58 9 2 66 15 126
30 103 23 145 31 220 40 17 1 57 6 90 10 33 4 97 9 143 10 45 1 85 5 88 8 3 3
19 1 35 -3 16 -5 31 -5 33 -1z m1051 -6299 c-3 -5 -12 -10 -18 -10 -7 0 -6 4
3 10 19 12 23 12 15 0z m-245 -220 c0 -5 -5 -10 -11 -10 -5 0 -7 5 -4 10 3 6
8 10 11 10 2 0 4 -4 4 -10z"/>
</g>
</svg>
