<?xml version="1.0" encoding="UTF-8"?>
<svg width="20px" height="20px" viewBox="0 0 20 20" version="1.1" xmlns="http://www.w3.org/2000/svg" xmlns:xlink="http://www.w3.org/1999/xlink">
    <!-- Generator: Sketch 55.1 (78136) - https://sketchapp.com -->
    <title>noun_portrait_1560872</title>
    <desc>Created with Sketch.</desc>
    <g id="Symbols" stroke="none" stroke-width="1" fill="none" fill-rule="evenodd">
        <g id="LAYOUT/Nav-components/Profils" transform="translate(-20.000000, -20.000000)" fill="#FFFFFF">
            <g id="1:-navelement/standard">
                <g id="Group-2">
                    <g id="noun_portrait_1560872" transform="translate(20.000000, 20.000000)">
                        <g id="noun_User_1560924-(1)">
                            <path d="M10,0 C4.4771525,0 0,4.4771525 0,10 C0,15.5228475 4.4771525,20 10,20 C15.5228475,20 20,15.5228475 20,10 C19.9942585,4.47953247 15.5204675,0.00574152055 10,0 Z M5.83333333,17.20625 L5.83333333,16.6666667 C5.83333333,14.3654802 7.69881354,12.5 10,12.5 C12.3011865,12.5 14.1666667,14.3654802 14.1666667,16.6666667 L14.1666667,17.20625 C11.592182,18.7091847 8.40781798,18.7091847 5.83333333,17.20625 L5.83333333,17.20625 Z M7.5,8.33333333 C7.5,6.95262146 8.61928813,5.83333333 10,5.83333333 C11.3807119,5.83333333 12.5,6.95262146 12.5,8.33333333 C12.5,9.71404521 11.3807119,10.8333333 10,10.8333333 C8.61928813,10.8333333 7.5,9.71404521 7.5,8.33333333 L7.5,8.33333333 Z M15.7895833,15.98125 C15.5613587,14.0638441 14.3990864,12.3836196 12.6854167,11.49375 C14.0234374,10.3659061 14.5141472,8.5221816 13.9137892,6.8784354 C13.3134311,5.23468919 11.7499518,4.14123204 10,4.14123204 C8.25004818,4.14123204 6.68656888,5.23468919 6.08621082,6.8784354 C5.48585276,8.5221816 5.97656263,10.3659061 7.31458333,11.49375 C5.60091358,12.3836196 4.43864133,14.0638441 4.21041667,15.98125 C1.76725369,13.6213134 1.00099717,10.0146655 2.27366673,6.8652754 C3.54633629,3.71588526 6.60318589,1.6541558 10,1.6541558 C13.3968141,1.6541558 16.4536637,3.71588526 17.7263333,6.8652754 C18.9990028,10.0146655 18.2327463,13.6213134 15.7895833,15.98125 L15.7895833,15.98125 Z" id="Shape"></path>
                        </g>
                    </g>
                </g>
            </g>
        </g>
    </g>
</svg>